<svg width="17" height="16" viewBox="0 0 17 16" fill="none" xmlns="http://www.w3.org/2000/svg">
<path d="M8.54333 11.8481H2.38266L0.395341 15.7975H0.0972443L7.94714 0H8.0465L16.2939 15.7975H10.63L8.54333 11.8481ZM5.36363 5.77215L2.58139 11.6456H8.44397L5.36363 5.77215Z" fill="white"/>
</svg>
